^C:\USERS\MASON\PROJECTS\OGL\PLAYGROUND\GAME.CPP|C:\USERS\MASON\PROJECTS\OGL\PLAYGROUND\IMGUI-MASTER\EXAMPLES\OPENGL2_EXAMPLE\IMGUI_IMPL_GLFW_GL2.CPP|C:\USERS\MASON\PROJECTS\OGL\PLAYGROUND\IMGUI-MASTER\EXAMPLES\OPENGL3_EXAMPLE\IMGUI_IMPL_GLFW_GL3.CPP|C:\USERS\MASON\PROJECTS\OGL\PLAYGROUND\IMGUI-MASTER\IMGUI.CPP|C:\USERS\MASON\PROJECTS\OGL\PLAYGROUND\IMGUI-MASTER\IMGUI_DEMO.CPP|C:\USERS\MASON\PROJECTS\OGL\PLAYGROUND\IMGUI-MASTER\IMGUI_DRAW.CPP|C:\USERS\MASON\PROJECTS\OGL\PLAYGROUND\MATERIAL_MANAGER.CPP|C:\USERS\MASON\PROJECTS\OGL\PLAYGROUND\MESH_MANAGER.CPP|C:\USERS\MASON\PROJECTS\OGL\PLAYGROUND\MTL_IMPORTER.CPP|C:\USERS\MASON\PROJECTS\OGL\PLAYGROUND\OBJ_IMPORTER.CPP|C:\USERS\MASON\PROJECTS\OGL\PLAYGROUND\PRIMITIVES.CPP|C:\USERS\MASON\PROJECTS\OGL\PLAYGROUND\RENDERER.CPP|C:\USERS\MASON\PROJECTS\OGL\PLAYGROUND\RESOURCE_MANAGER.CPP|C:\USERS\MASON\PROJECTS\OGL\PLAYGROUND\SHADER_MANAGER.CPP|C:\USERS\MASON\PROJECTS\OGL\PLAYGROUND\SKSMATH.CPP|C:\USERS\MASON\PROJECTS\OGL\PLAYGROUND\SPLIT_STREAM.CPP|C:\USERS\MASON\PROJECTS\OGL\PLAYGROUND\STREAM_OVERRIDE.CPP|C:\USERS\MASON\PROJECTS\OGL\PLAYGROUND\TEXTURE_MANAGER.CPP|C:\USERS\MASON\PROJECTS\OGL\PLAYGROUND\TRANSFORM.CPP|C:\USERS\MASON\PROJECTS\OGL\PLAYGROUND\USER_INPUT.CPP
C:\USERS\MASON\PROJECTS\OGL\PLAYGROUND\SIMPLE_FPS.DIR\RELEASE\MATERIAL_MANAGER.OBJ
C:\USERS\MASON\PROJECTS\OGL\PLAYGROUND\SIMPLE_FPS.DIR\RELEASE\RENDERER.OBJ
C:\USERS\MASON\PROJECTS\OGL\PLAYGROUND\SIMPLE_FPS.DIR\RELEASE\SKSMATH.OBJ
C:\USERS\MASON\PROJECTS\OGL\PLAYGROUND\SIMPLE_FPS.DIR\RELEASE\TRANSFORM.OBJ
C:\USERS\MASON\PROJECTS\OGL\PLAYGROUND\SIMPLE_FPS.DIR\RELEASE\IMGUI_IMPL_GLFW_GL2.OBJ
C:\USERS\MASON\PROJECTS\OGL\PLAYGROUND\SIMPLE_FPS.DIR\RELEASE\IMGUI.OBJ
C:\USERS\MASON\PROJECTS\OGL\PLAYGROUND\SIMPLE_FPS.DIR\RELEASE\MTL_IMPORTER.OBJ
C:\USERS\MASON\PROJECTS\OGL\PLAYGROUND\SIMPLE_FPS.DIR\RELEASE\SHADER_MANAGER.OBJ
C:\USERS\MASON\PROJECTS\OGL\PLAYGROUND\SIMPLE_FPS.DIR\RELEASE\STREAM_OVERRIDE.OBJ
C:\USERS\MASON\PROJECTS\OGL\PLAYGROUND\SIMPLE_FPS.DIR\RELEASE\IMGUI_IMPL_GLFW_GL3.OBJ
C:\USERS\MASON\PROJECTS\OGL\PLAYGROUND\SIMPLE_FPS.DIR\RELEASE\IMGUI_DEMO.OBJ
C:\USERS\MASON\PROJECTS\OGL\PLAYGROUND\SIMPLE_FPS.DIR\RELEASE\MESH_MANAGER.OBJ
C:\USERS\MASON\PROJECTS\OGL\PLAYGROUND\SIMPLE_FPS.DIR\RELEASE\RESOURCE_MANAGER.OBJ
C:\USERS\MASON\PROJECTS\OGL\PLAYGROUND\SIMPLE_FPS.DIR\RELEASE\SPLIT_STREAM.OBJ
C:\USERS\MASON\PROJECTS\OGL\PLAYGROUND\SIMPLE_FPS.DIR\RELEASE\TEXTURE_MANAGER.OBJ
C:\USERS\MASON\PROJECTS\OGL\PLAYGROUND\SIMPLE_FPS.DIR\RELEASE\IMGUI_DRAW.OBJ
C:\USERS\MASON\PROJECTS\OGL\PLAYGROUND\SIMPLE_FPS.DIR\RELEASE\PRIMITIVES.OBJ
C:\USERS\MASON\PROJECTS\OGL\PLAYGROUND\SIMPLE_FPS.DIR\RELEASE\OBJ_IMPORTER.OBJ
C:\USERS\MASON\PROJECTS\OGL\PLAYGROUND\SIMPLE_FPS.DIR\RELEASE\GAME.OBJ
C:\USERS\MASON\PROJECTS\OGL\PLAYGROUND\SIMPLE_FPS.DIR\RELEASE\USER_INPUT.OBJ
^C:\USERS\MASON\PROJECTS\OGL\PLAYGROUND\GAME.CPP|C:\USERS\MASON\PROJECTS\OGL\PLAYGROUND\IMGUI-MASTER\EXAMPLES\OPENGL2_EXAMPLE\IMGUI_IMPL_GLFW_GL2.CPP|C:\USERS\MASON\PROJECTS\OGL\PLAYGROUND\IMGUI-MASTER\EXAMPLES\OPENGL3_EXAMPLE\IMGUI_IMPL_GLFW_GL3.CPP|C:\USERS\MASON\PROJECTS\OGL\PLAYGROUND\IMGUI-MASTER\IMGUI.CPP|C:\USERS\MASON\PROJECTS\OGL\PLAYGROUND\IMGUI-MASTER\IMGUI_DEMO.CPP|C:\USERS\MASON\PROJECTS\OGL\PLAYGROUND\IMGUI-MASTER\IMGUI_DRAW.CPP|C:\USERS\MASON\PROJECTS\OGL\PLAYGROUND\MATERIAL_MANAGER.CPP|C:\USERS\MASON\PROJECTS\OGL\PLAYGROUND\MESH_MANAGER.CPP|C:\USERS\MASON\PROJECTS\OGL\PLAYGROUND\MTL_IMPORTER.CPP|C:\USERS\MASON\PROJECTS\OGL\PLAYGROUND\OBJ_IMPORTER.CPP|C:\USERS\MASON\PROJECTS\OGL\PLAYGROUND\PRIMITIVES.CPP|C:\USERS\MASON\PROJECTS\OGL\PLAYGROUND\RENDERER.CPP|C:\USERS\MASON\PROJECTS\OGL\PLAYGROUND\SHADER_MANAGER.CPP|C:\USERS\MASON\PROJECTS\OGL\PLAYGROUND\SKSMATH.CPP|C:\USERS\MASON\PROJECTS\OGL\PLAYGROUND\SPLIT_STREAM.CPP|C:\USERS\MASON\PROJECTS\OGL\PLAYGROUND\STREAM_OVERRIDE.CPP|C:\USERS\MASON\PROJECTS\OGL\PLAYGROUND\TEXTURE_MANAGER.CPP|C:\USERS\MASON\PROJECTS\OGL\PLAYGROUND\TRANSFORM.CPP|C:\USERS\MASON\PROJECTS\OGL\PLAYGROUND\USER_INPUT.CPP|C:\USERS\MASON\PROJECTS\OGL\PLAYGROUND\WEAPON.CPP
C:\USERS\MASON\PROJECTS\OGL\PLAYGROUND\SIMPLE_FPS.DIR\RELEASE\MESH_MANAGER.OBJ
C:\USERS\MASON\PROJECTS\OGL\PLAYGROUND\SIMPLE_FPS.DIR\RELEASE\SKSMATH.OBJ
C:\USERS\MASON\PROJECTS\OGL\PLAYGROUND\SIMPLE_FPS.DIR\RELEASE\GAME.OBJ
C:\USERS\MASON\PROJECTS\OGL\PLAYGROUND\SIMPLE_FPS.DIR\RELEASE\MTL_IMPORTER.OBJ
C:\USERS\MASON\PROJECTS\OGL\PLAYGROUND\SIMPLE_FPS.DIR\RELEASE\IMGUI_IMPL_GLFW_GL2.OBJ
C:\USERS\MASON\PROJECTS\OGL\PLAYGROUND\SIMPLE_FPS.DIR\RELEASE\IMGUI.OBJ
C:\USERS\MASON\PROJECTS\OGL\PLAYGROUND\SIMPLE_FPS.DIR\RELEASE\WEAPON.OBJ
C:\USERS\MASON\PROJECTS\OGL\PLAYGROUND\SIMPLE_FPS.DIR\RELEASE\MATERIAL_MANAGER.OBJ
C:\USERS\MASON\PROJECTS\OGL\PLAYGROUND\SIMPLE_FPS.DIR\RELEASE\RENDERER.OBJ
C:\USERS\MASON\PROJECTS\OGL\PLAYGROUND\SIMPLE_FPS.DIR\RELEASE\TRANSFORM.OBJ
C:\USERS\MASON\PROJECTS\OGL\PLAYGROUND\SIMPLE_FPS.DIR\RELEASE\IMGUI_IMPL_GLFW_GL3.OBJ
C:\USERS\MASON\PROJECTS\OGL\PLAYGROUND\SIMPLE_FPS.DIR\RELEASE\IMGUI_DEMO.OBJ
C:\USERS\MASON\PROJECTS\OGL\PLAYGROUND\SIMPLE_FPS.DIR\RELEASE\PRIMITIVES.OBJ
C:\USERS\MASON\PROJECTS\OGL\PLAYGROUND\SIMPLE_FPS.DIR\RELEASE\OBJ_IMPORTER.OBJ
C:\USERS\MASON\PROJECTS\OGL\PLAYGROUND\SIMPLE_FPS.DIR\RELEASE\SHADER_MANAGER.OBJ
C:\USERS\MASON\PROJECTS\OGL\PLAYGROUND\SIMPLE_FPS.DIR\RELEASE\SPLIT_STREAM.OBJ
C:\USERS\MASON\PROJECTS\OGL\PLAYGROUND\SIMPLE_FPS.DIR\RELEASE\STREAM_OVERRIDE.OBJ
C:\USERS\MASON\PROJECTS\OGL\PLAYGROUND\SIMPLE_FPS.DIR\RELEASE\TEXTURE_MANAGER.OBJ
C:\USERS\MASON\PROJECTS\OGL\PLAYGROUND\SIMPLE_FPS.DIR\RELEASE\IMGUI_DRAW.OBJ
C:\USERS\MASON\PROJECTS\OGL\PLAYGROUND\SIMPLE_FPS.DIR\RELEASE\USER_INPUT.OBJ
^C:\USERS\MASON\PROJECTS\OGL\PLAYGROUND\MTL_IMPORTER.CPP
C:\USERS\MASON\PROJECTS\OGL\PLAYGROUND\SIMPLE_FPS.DIR\RELEASE\MTL_IMPORTER.OBJ
