^C:\Users\Mason\Projects\ogl\build\Release\simple_fps.exe
C:\Users\Mason\Projects\ogl\playground\simple_fps.dir\Release\vcpkg.applocal.log
C:\Users\Mason\Projects\ogl\build\Release\boost_coroutine-vc141-mt-x32-1_66.dll
C:\Users\Mason\Projects\ogl\build\Release\boost_context-vc141-mt-x32-1_66.dll
C:\Users\Mason\Projects\ogl\build\Release\boost_system-vc141-mt-x32-1_66.dll
C:\Users\Mason\Projects\ogl\build\Release\boost_thread-vc141-mt-x32-1_66.dll
C:\Users\Mason\Projects\ogl\build\Release\boost_chrono-vc141-mt-x32-1_66.dll
C:\Users\Mason\Projects\ogl\build\Release\boost_date_time-vc141-mt-x32-1_66.dll
^C:\Users\Mason\Projects\ogl\build\Release\simple_fps.exe
C:\Users\Mason\Projects\ogl\playground\simple_fps.dir\Release\vcpkg.applocal.log
C:\Users\Mason\Projects\ogl\build\Release\boost_coroutine-vc141-mt-x32-1_66.dll
C:\Users\Mason\Projects\ogl\build\Release\boost_context-vc141-mt-x32-1_66.dll
C:\Users\Mason\Projects\ogl\build\Release\boost_system-vc141-mt-x32-1_66.dll
C:\Users\Mason\Projects\ogl\build\Release\boost_thread-vc141-mt-x32-1_66.dll
C:\Users\Mason\Projects\ogl\build\Release\boost_chrono-vc141-mt-x32-1_66.dll
C:\Users\Mason\Projects\ogl\build\Release\boost_date_time-vc141-mt-x32-1_66.dll
