^C:\USERS\MASON\PROJECTS\OGL\BULLET3\BUILD\LIB\DEBUG\BULLETCOLLISION_DEBUG.LIB|C:\USERS\MASON\PROJECTS\OGL\BULLET3\BUILD\LIB\DEBUG\BULLETDYNAMICS_DEBUG.LIB|C:\USERS\MASON\PROJECTS\OGL\BULLET3\BUILD\LIB\DEBUG\LINEARMATH_DEBUG.LIB|C:\USERS\MASON\PROJECTS\OGL\EXTERNAL\FMT-MASTER\BUILD\DEBUG\FMTD.LIB|C:\USERS\MASON\PROJECTS\OGL\EXTERNAL\GLFW-MASTER\BUILD\SRC\DEBUG\GLFW3.LIB|C:\USERS\MASON\PROJECTS\OGL\SIMPLE-FPS\DEBUG\IMGUI.LIB|C:\USERS\MASON\PROJECTS\OGL\SIMPLE-FPS\PLAYGROUND.DIR\DEBUG\GAME.OBJ|C:\USERS\MASON\PROJECTS\OGL\SIMPLE-FPS\PLAYGROUND.DIR\DEBUG\INPUTMANAGER.OBJ|C:\USERS\MASON\PROJECTS\OGL\SIMPLE-FPS\PLAYGROUND.DIR\DEBUG\LOGGER.OBJ|C:\USERS\MASON\PROJECTS\OGL\SIMPLE-FPS\PLAYGROUND.DIR\DEBUG\MATERIALMANAGER.OBJ|C:\USERS\MASON\PROJECTS\OGL\SIMPLE-FPS\PLAYGROUND.DIR\DEBUG\MESHMANAGER.OBJ|C:\USERS\MASON\PROJECTS\OGL\SIMPLE-FPS\PLAYGROUND.DIR\DEBUG\MESHPHYSICSOBJECT.OBJ|C:\USERS\MASON\PROJECTS\OGL\SIMPLE-FPS\PLAYGROUND.DIR\DEBUG\MTLIMPORTER.OBJ|C:\USERS\MASON\PROJECTS\OGL\SIMPLE-FPS\PLAYGROUND.DIR\DEBUG\OBJIMPORTER.OBJ|C:\USERS\MASON\PROJECTS\OGL\SIMPLE-FPS\PLAYGROUND.DIR\DEBUG\PHYSOBJ.OBJ|C:\USERS\MASON\PROJECTS\OGL\SIMPLE-FPS\PLAYGROUND.DIR\DEBUG\PHYSWORLD.OBJ|C:\USERS\MASON\PROJECTS\OGL\SIMPLE-FPS\PLAYGROUND.DIR\DEBUG\PRIMITIVES.OBJ|C:\USERS\MASON\PROJECTS\OGL\SIMPLE-FPS\PLAYGROUND.DIR\DEBUG\RENDERER.OBJ|C:\USERS\MASON\PROJECTS\OGL\SIMPLE-FPS\PLAYGROUND.DIR\DEBUG\SHADERMANAGER.OBJ|C:\USERS\MASON\PROJECTS\OGL\SIMPLE-FPS\PLAYGROUND.DIR\DEBUG\SKSMATH.OBJ|C:\USERS\MASON\PROJECTS\OGL\SIMPLE-FPS\PLAYGROUND.DIR\DEBUG\SPLIT_STREAM.OBJ|C:\USERS\MASON\PROJECTS\OGL\SIMPLE-FPS\PLAYGROUND.DIR\DEBUG\STDAFX.OBJ|C:\USERS\MASON\PROJECTS\OGL\SIMPLE-FPS\PLAYGROUND.DIR\DEBUG\STREAM_OVERRIDE.OBJ|C:\USERS\MASON\PROJECTS\OGL\SIMPLE-FPS\PLAYGROUND.DIR\DEBUG\TEXTUREMANAGER.OBJ|C:\USERS\MASON\PROJECTS\OGL\SIMPLE-FPS\PLAYGROUND.DIR\DEBUG\TRANSFORM.OBJ|C:\USERS\MASON\PROJECTS\OGL\SIMPLE-FPS\PLAYGROUND.DIR\DEBUG\WEAPON.OBJ
C:\USERS\MASON\PROJECTS\OGL\BUILD\DEBUG\SIMPLE_FPS.EXE
C:\USERS\MASON\PROJECTS\OGL\BUILD\DEBUG\SIMPLE_FPS.ILK
C:\USERS\MASON\PROJECTS\OGL\BUILD\DEBUG\SIMPLE-FPS.PDB
