^C:\USERS\MASON\PROJECTS\OGL\BULLET3\BUILD\LIB\DEBUG\BULLETCOLLISION_DEBUG.LIB|C:\USERS\MASON\PROJECTS\OGL\BULLET3\BUILD\LIB\DEBUG\BULLETDYNAMICS_DEBUG.LIB|C:\USERS\MASON\PROJECTS\OGL\BULLET3\BUILD\LIB\DEBUG\LINEARMATH_DEBUG.LIB|C:\USERS\MASON\PROJECTS\OGL\EXTERNAL\FMT-MASTER\BUILD\DEBUG\FMTD.LIB|C:\USERS\MASON\PROJECTS\OGL\EXTERNAL\GLFW-MASTER\BUILD\SRC\DEBUG\GLFW3.LIB|C:\USERS\MASON\PROJECTS\OGL\SIMPLE-FPS\DEBUG\IMGUI.LIB|C:\USERS\MASON\PROJECTS\OGL\SIMPLE-FPS\PLAYGROUND.DIR\DEBUG\GAME.OBJ|C:\USERS\MASON\PROJECTS\OGL\SIMPLE-FPS\PLAYGROUND.DIR\DEBUG\INPUTMANAGER.OBJ|C:\USERS\MASON\PROJECTS\OGL\SIMPLE-FPS\PLAYGROUND.DIR\DEBUG\LOGGER.OBJ|C:\USERS\MASON\PROJECTS\OGL\SIMPLE-FPS\PLAYGROUND.DIR\DEBUG\MATERIALMANAGER.OBJ|C:\USERS\MASON\PROJECTS\OGL\SIMPLE-FPS\PLAYGROUND.DIR\DEBUG\MESHMANAGER.OBJ|C:\USERS\MASON\PROJECTS\OGL\SIMPLE-FPS\PLAYGROUND.DIR\DEBUG\MESHPHYSICSOBJECT.OBJ|C:\USERS\MASON\PROJECTS\OGL\SIMPLE-FPS\PLAYGROUND.DIR\DEBUG\MTLIMPORTER.OBJ|C:\USERS\MASON\PROJECTS\OGL\SIMPLE-FPS\PLAYGROUND.DIR\DEBUG\OBJIMPORTER.OBJ|C:\USERS\MASON\PROJECTS\OGL\SIMPLE-FPS\PLAYGROUND.DIR\DEBUG\PHYSOBJ.OBJ|C:\USERS\MASON\PROJECTS\OGL\SIMPLE-FPS\PLAYGROUND.DIR\DEBUG\PHYSWORLD.OBJ|C:\USERS\MASON\PROJECTS\OGL\SIMPLE-FPS\PLAYGROUND.DIR\DEBUG\PRIMITIVES.OBJ|C:\USERS\MASON\PROJECTS\OGL\SIMPLE-FPS\PLAYGROUND.DIR\DEBUG\RENDERER.OBJ|C:\USERS\MASON\PROJECTS\OGL\SIMPLE-FPS\PLAYGROUND.DIR\DEBUG\SHADERMANAGER.OBJ|C:\USERS\MASON\PROJECTS\OGL\SIMPLE-FPS\PLAYGROUND.DIR\DEBUG\SKSMATH.OBJ|C:\USERS\MASON\PROJECTS\OGL\SIMPLE-FPS\PLAYGROUND.DIR\DEBUG\SPLIT_STREAM.OBJ|C:\USERS\MASON\PROJECTS\OGL\SIMPLE-FPS\PLAYGROUND.DIR\DEBUG\STDAFX.OBJ|C:\USERS\MASON\PROJECTS\OGL\SIMPLE-FPS\PLAYGROUND.DIR\DEBUG\STREAM_OVERRIDE.OBJ|C:\USERS\MASON\PROJECTS\OGL\SIMPLE-FPS\PLAYGROUND.DIR\DEBUG\TEXTUREMANAGER.OBJ|C:\USERS\MASON\PROJECTS\OGL\SIMPLE-FPS\PLAYGROUND.DIR\DEBUG\TRANSFORM.OBJ|C:\USERS\MASON\PROJECTS\OGL\SIMPLE-FPS\PLAYGROUND.DIR\DEBUG\WEAPON.OBJ
C:\WINDOWS\GLOBALIZATION\SORTING\SORTDEFAULT.NLS
C:\PROGRAM FILES (X86)\WINDOWS KITS\10\LIB\10.0.16299.0\UM\X86\OPENGL32.LIB
C:\PROGRAM FILES (X86)\WINDOWS KITS\10\LIB\10.0.16299.0\UM\X86\GLU32.LIB
C:\USERS\MASON\PROJECTS\OGL\EXTERNAL\GLFW-MASTER\BUILD\SRC\DEBUG\GLFW3.LIB
C:\USERS\MASON\PROJECTS\OGL\EXTERNAL\GLEW-2.1.0\LIB\DEBUG\WIN32\GLEW32SD.LIB
C:\PROGRAM FILES (X86)\WINDOWS KITS\10\LIB\10.0.16299.0\UM\X86\KERNEL32.LIB
C:\PROGRAM FILES (X86)\WINDOWS KITS\10\LIB\10.0.16299.0\UM\X86\USER32.LIB
C:\PROGRAM FILES (X86)\WINDOWS KITS\10\LIB\10.0.16299.0\UM\X86\GDI32.LIB
C:\PROGRAM FILES (X86)\WINDOWS KITS\10\LIB\10.0.16299.0\UM\X86\WINSPOOL.LIB
C:\PROGRAM FILES (X86)\WINDOWS KITS\10\LIB\10.0.16299.0\UM\X86\SHELL32.LIB
C:\PROGRAM FILES (X86)\WINDOWS KITS\10\LIB\10.0.16299.0\UM\X86\OLE32.LIB
C:\PROGRAM FILES (X86)\WINDOWS KITS\10\LIB\10.0.16299.0\UM\X86\OLEAUT32.LIB
C:\PROGRAM FILES (X86)\WINDOWS KITS\10\LIB\10.0.16299.0\UM\X86\UUID.LIB
C:\PROGRAM FILES (X86)\WINDOWS KITS\10\LIB\10.0.16299.0\UM\X86\COMDLG32.LIB
C:\PROGRAM FILES (X86)\WINDOWS KITS\10\LIB\10.0.16299.0\UM\X86\ADVAPI32.LIB
C:\USERS\MASON\PROJECTS\VCPKG\INSTALLED\X86-WINDOWS\DEBUG\LIB\BOOST_ATOMIC-VC140-MT-GD.LIB
C:\USERS\MASON\PROJECTS\VCPKG\INSTALLED\X86-WINDOWS\DEBUG\LIB\BOOST_CHRONO-VC140-MT-GD.LIB
C:\USERS\MASON\PROJECTS\VCPKG\INSTALLED\X86-WINDOWS\DEBUG\LIB\BOOST_CONTAINER-VC140-MT-GD.LIB
C:\USERS\MASON\PROJECTS\VCPKG\INSTALLED\X86-WINDOWS\DEBUG\LIB\BOOST_CONTEXT-VC140-MT-GD.LIB
C:\USERS\MASON\PROJECTS\VCPKG\INSTALLED\X86-WINDOWS\DEBUG\LIB\BOOST_COROUTINE-VC140-MT-GD.LIB
C:\USERS\MASON\PROJECTS\VCPKG\INSTALLED\X86-WINDOWS\DEBUG\LIB\BOOST_DATE_TIME-VC140-MT-GD.LIB
C:\USERS\MASON\PROJECTS\VCPKG\INSTALLED\X86-WINDOWS\DEBUG\LIB\BOOST_EXCEPTION-VC140-MT-GD.LIB
C:\USERS\MASON\PROJECTS\VCPKG\INSTALLED\X86-WINDOWS\DEBUG\LIB\BOOST_FIBER-VC140-MT-GD.LIB
C:\USERS\MASON\PROJECTS\VCPKG\INSTALLED\X86-WINDOWS\DEBUG\LIB\BOOST_FILESYSTEM-VC140-MT-GD.LIB
C:\USERS\MASON\PROJECTS\VCPKG\INSTALLED\X86-WINDOWS\DEBUG\LIB\BOOST_GRAPH-VC140-MT-GD.LIB
C:\USERS\MASON\PROJECTS\VCPKG\INSTALLED\X86-WINDOWS\DEBUG\LIB\BOOST_IOSTREAMS-VC140-MT-GD.LIB
C:\USERS\MASON\PROJECTS\VCPKG\INSTALLED\X86-WINDOWS\DEBUG\LIB\BOOST_LOCALE-VC140-MT-GD.LIB
C:\USERS\MASON\PROJECTS\VCPKG\INSTALLED\X86-WINDOWS\DEBUG\LIB\BOOST_LOG-VC140-MT-GD.LIB
C:\USERS\MASON\PROJECTS\VCPKG\INSTALLED\X86-WINDOWS\DEBUG\LIB\BOOST_LOG_SETUP-VC140-MT-GD.LIB
C:\USERS\MASON\PROJECTS\VCPKG\INSTALLED\X86-WINDOWS\DEBUG\LIB\BOOST_MATH_C99-VC140-MT-GD.LIB
C:\USERS\MASON\PROJECTS\VCPKG\INSTALLED\X86-WINDOWS\DEBUG\LIB\BOOST_MATH_C99F-VC140-MT-GD.LIB
C:\USERS\MASON\PROJECTS\VCPKG\INSTALLED\X86-WINDOWS\DEBUG\LIB\BOOST_MATH_C99L-VC140-MT-GD.LIB
C:\USERS\MASON\PROJECTS\VCPKG\INSTALLED\X86-WINDOWS\DEBUG\LIB\BOOST_MATH_TR1-VC140-MT-GD.LIB
C:\USERS\MASON\PROJECTS\VCPKG\INSTALLED\X86-WINDOWS\DEBUG\LIB\BOOST_MATH_TR1F-VC140-MT-GD.LIB
C:\USERS\MASON\PROJECTS\VCPKG\INSTALLED\X86-WINDOWS\DEBUG\LIB\BOOST_MATH_TR1L-VC140-MT-GD.LIB
C:\USERS\MASON\PROJECTS\VCPKG\INSTALLED\X86-WINDOWS\DEBUG\LIB\BOOST_PROGRAM_OPTIONS-VC140-MT-GD.LIB
C:\USERS\MASON\PROJECTS\VCPKG\INSTALLED\X86-WINDOWS\DEBUG\LIB\BOOST_PYTHON-VC140-MT-GD.LIB
C:\USERS\MASON\PROJECTS\VCPKG\INSTALLED\X86-WINDOWS\DEBUG\LIB\BOOST_RANDOM-VC140-MT-GD.LIB
C:\USERS\MASON\PROJECTS\VCPKG\INSTALLED\X86-WINDOWS\DEBUG\LIB\BOOST_REGEX-VC140-MT-GD.LIB
C:\USERS\MASON\PROJECTS\VCPKG\INSTALLED\X86-WINDOWS\DEBUG\LIB\BOOST_SERIALIZATION-VC140-MT-GD.LIB
C:\USERS\MASON\PROJECTS\VCPKG\INSTALLED\X86-WINDOWS\DEBUG\LIB\BOOST_SIGNALS-VC140-MT-GD.LIB
C:\USERS\MASON\PROJECTS\VCPKG\INSTALLED\X86-WINDOWS\DEBUG\LIB\BOOST_STACKTRACE_NOOP-VC140-MT-GD.LIB
C:\USERS\MASON\PROJECTS\VCPKG\INSTALLED\X86-WINDOWS\DEBUG\LIB\BOOST_STACKTRACE_WINDBG-VC140-MT-GD.LIB
C:\USERS\MASON\PROJECTS\VCPKG\INSTALLED\X86-WINDOWS\DEBUG\LIB\BOOST_STACKTRACE_WINDBG_CACHED-VC140-MT-GD.LIB
C:\USERS\MASON\PROJECTS\VCPKG\INSTALLED\X86-WINDOWS\DEBUG\LIB\BOOST_SYSTEM-VC140-MT-GD.LIB
C:\USERS\MASON\PROJECTS\VCPKG\INSTALLED\X86-WINDOWS\DEBUG\LIB\BOOST_THREAD-VC140-MT-GD.LIB
C:\USERS\MASON\PROJECTS\VCPKG\INSTALLED\X86-WINDOWS\DEBUG\LIB\BOOST_TIMER-VC140-MT-GD.LIB
C:\USERS\MASON\PROJECTS\VCPKG\INSTALLED\X86-WINDOWS\DEBUG\LIB\BOOST_TYPE_ERASURE-VC140-MT-GD.LIB
C:\USERS\MASON\PROJECTS\VCPKG\INSTALLED\X86-WINDOWS\DEBUG\LIB\BOOST_UNIT_TEST_FRAMEWORK-VC140-MT-GD.LIB
C:\USERS\MASON\PROJECTS\VCPKG\INSTALLED\X86-WINDOWS\DEBUG\LIB\BOOST_WAVE-VC140-MT-GD.LIB
C:\USERS\MASON\PROJECTS\VCPKG\INSTALLED\X86-WINDOWS\DEBUG\LIB\BOOST_WSERIALIZATION-VC140-MT-GD.LIB
C:\USERS\MASON\PROJECTS\VCPKG\INSTALLED\X86-WINDOWS\DEBUG\LIB\BZ2D.LIB
C:\USERS\MASON\PROJECTS\VCPKG\INSTALLED\X86-WINDOWS\DEBUG\LIB\LIBEAY32.LIB
C:\USERS\MASON\PROJECTS\VCPKG\INSTALLED\X86-WINDOWS\DEBUG\LIB\PYTHON36_D.LIB
C:\USERS\MASON\PROJECTS\VCPKG\INSTALLED\X86-WINDOWS\DEBUG\LIB\SSLEAY32.LIB
C:\USERS\MASON\PROJECTS\VCPKG\INSTALLED\X86-WINDOWS\DEBUG\LIB\ZLIBD.LIB
C:\USERS\MASON\PROJECTS\OGL\SIMPLE-FPS\PLAYGROUND.DIR\DEBUG\LOGGER.OBJ
C:\USERS\MASON\PROJECTS\OGL\SIMPLE-FPS\PLAYGROUND.DIR\DEBUG\MATERIALMANAGER.OBJ
C:\USERS\MASON\PROJECTS\OGL\SIMPLE-FPS\PLAYGROUND.DIR\DEBUG\MESHPHYSICSOBJECT.OBJ
C:\USERS\MASON\PROJECTS\OGL\SIMPLE-FPS\PLAYGROUND.DIR\DEBUG\MESHMANAGER.OBJ
C:\USERS\MASON\PROJECTS\OGL\SIMPLE-FPS\PLAYGROUND.DIR\DEBUG\PRIMITIVES.OBJ
C:\USERS\MASON\PROJECTS\OGL\SIMPLE-FPS\PLAYGROUND.DIR\DEBUG\MTLIMPORTER.OBJ
C:\USERS\MASON\PROJECTS\OGL\SIMPLE-FPS\PLAYGROUND.DIR\DEBUG\OBJIMPORTER.OBJ
C:\USERS\MASON\PROJECTS\OGL\SIMPLE-FPS\PLAYGROUND.DIR\DEBUG\PHYSOBJ.OBJ
C:\USERS\MASON\PROJECTS\OGL\SIMPLE-FPS\PLAYGROUND.DIR\DEBUG\PHYSWORLD.OBJ
C:\USERS\MASON\PROJECTS\OGL\SIMPLE-FPS\PLAYGROUND.DIR\DEBUG\RENDERER.OBJ
C:\USERS\MASON\PROJECTS\OGL\SIMPLE-FPS\PLAYGROUND.DIR\DEBUG\SHADERMANAGER.OBJ
C:\USERS\MASON\PROJECTS\OGL\SIMPLE-FPS\PLAYGROUND.DIR\DEBUG\SKSMATH.OBJ
C:\USERS\MASON\PROJECTS\OGL\SIMPLE-FPS\PLAYGROUND.DIR\DEBUG\STDAFX.OBJ
C:\USERS\MASON\PROJECTS\OGL\SIMPLE-FPS\PLAYGROUND.DIR\DEBUG\TRANSFORM.OBJ
C:\USERS\MASON\PROJECTS\OGL\SIMPLE-FPS\PLAYGROUND.DIR\DEBUG\GAME.OBJ
C:\USERS\MASON\PROJECTS\OGL\SIMPLE-FPS\PLAYGROUND.DIR\DEBUG\SPLIT_STREAM.OBJ
C:\USERS\MASON\PROJECTS\OGL\SIMPLE-FPS\PLAYGROUND.DIR\DEBUG\STREAM_OVERRIDE.OBJ
C:\USERS\MASON\PROJECTS\OGL\SIMPLE-FPS\PLAYGROUND.DIR\DEBUG\TEXTUREMANAGER.OBJ
C:\USERS\MASON\PROJECTS\OGL\SIMPLE-FPS\PLAYGROUND.DIR\DEBUG\INPUTMANAGER.OBJ
C:\USERS\MASON\PROJECTS\OGL\SIMPLE-FPS\PLAYGROUND.DIR\DEBUG\WEAPON.OBJ
C:\USERS\MASON\PROJECTS\OGL\BULLET3\BUILD\LIB\DEBUG\BULLETCOLLISION_DEBUG.LIB
C:\USERS\MASON\PROJECTS\OGL\BULLET3\BUILD\LIB\DEBUG\BULLETDYNAMICS_DEBUG.LIB
C:\USERS\MASON\PROJECTS\OGL\BULLET3\BUILD\LIB\DEBUG\LINEARMATH_DEBUG.LIB
C:\USERS\MASON\PROJECTS\OGL\EXTERNAL\FMT-MASTER\BUILD\DEBUG\FMTD.LIB
C:\USERS\MASON\PROJECTS\OGL\SIMPLE-FPS\DEBUG\IMGUI.LIB
C:\WINDOWS\SYSTEM32\TZRES.DLL
C:\PROGRAM FILES (X86)\MICROSOFT VISUAL STUDIO\2017\COMMUNITY\VC\TOOLS\MSVC\14.12.25827\BIN\HOSTX86\X86\1033\LINKUI.DLL
C:\PROGRAM FILES (X86)\MICROSOFT VISUAL STUDIO\2017\COMMUNITY\VC\TOOLS\MSVC\14.12.25827\LIB\X86\MSVCPRTD.LIB
C:\PROGRAM FILES (X86)\WINDOWS KITS\10\LIB\10.0.16299.0\UM\X86\WS2_32.LIB
C:\PROGRAM FILES (X86)\WINDOWS KITS\10\LIB\10.0.16299.0\UM\X86\MSWSOCK.LIB
C:\PROGRAM FILES (X86)\MICROSOFT VISUAL STUDIO\2017\COMMUNITY\VC\TOOLS\MSVC\14.12.25827\LIB\X86\MSVCRTD.LIB
C:\PROGRAM FILES (X86)\MICROSOFT VISUAL STUDIO\2017\COMMUNITY\VC\TOOLS\MSVC\14.12.25827\LIB\X86\OLDNAMES.LIB
C:\PROGRAM FILES (X86)\WINDOWS KITS\10\LIB\10.0.16299.0\UM\X86\IMM32.LIB
C:\PROGRAM FILES (X86)\MICROSOFT VISUAL STUDIO\2017\COMMUNITY\VC\TOOLS\MSVC\14.12.25827\LIB\X86\VCRUNTIMED.LIB
C:\PROGRAM FILES (X86)\WINDOWS KITS\10\LIB\10.0.16299.0\UCRT\X86\UCRTD.LIB
C:\PROGRAM FILES (X86)\WINDOWS KITS\10\BIN\10.0.16299.0\X86\RC.EXE
C:\PROGRAM FILES (X86)\MICROSOFT VISUAL STUDIO\2017\COMMUNITY\VC\TOOLS\MSVC\14.12.25827\BIN\HOSTX86\X86\CVTRES.EXE
