^C:\USERS\MASON\PROJECTS\OGL\EXTERNAL\IMGUI-MASTER\IMGUI.CPP|C:\USERS\MASON\PROJECTS\OGL\EXTERNAL\IMGUI-MASTER\IMGUI_DEMO.CPP|C:\USERS\MASON\PROJECTS\OGL\EXTERNAL\IMGUI-MASTER\IMGUI_DRAW.CPP|C:\USERS\MASON\PROJECTS\OGL\SIMPLE-FPS\GAME.CPP|C:\USERS\MASON\PROJECTS\OGL\SIMPLE-FPS\MATERIAL_MANAGER.CPP|C:\USERS\MASON\PROJECTS\OGL\SIMPLE-FPS\MESH_MANAGER.CPP|C:\USERS\MASON\PROJECTS\OGL\SIMPLE-FPS\MTL_IMPORTER.CPP|C:\USERS\MASON\PROJECTS\OGL\SIMPLE-FPS\OBJ_IMPORTER.CPP|C:\USERS\MASON\PROJECTS\OGL\SIMPLE-FPS\PHYS_OBJ.CPP|C:\USERS\MASON\PROJECTS\OGL\SIMPLE-FPS\PHYS_WORLD.CPP|C:\USERS\MASON\PROJECTS\OGL\SIMPLE-FPS\PRIMITIVES.CPP|C:\USERS\MASON\PROJECTS\OGL\SIMPLE-FPS\RENDERER.CPP|C:\USERS\MASON\PROJECTS\OGL\SIMPLE-FPS\SHADER_MANAGER.CPP|C:\USERS\MASON\PROJECTS\OGL\SIMPLE-FPS\SKSMATH.CPP|C:\USERS\MASON\PROJECTS\OGL\SIMPLE-FPS\SPLIT_STREAM.CPP|C:\USERS\MASON\PROJECTS\OGL\SIMPLE-FPS\STREAM_OVERRIDE.CPP|C:\USERS\MASON\PROJECTS\OGL\SIMPLE-FPS\TEXTURE_MANAGER.CPP|C:\USERS\MASON\PROJECTS\OGL\SIMPLE-FPS\TRANSFORM.CPP|C:\USERS\MASON\PROJECTS\OGL\SIMPLE-FPS\USER_INPUT.CPP|C:\USERS\MASON\PROJECTS\OGL\SIMPLE-FPS\WEAPON.CPP
C:\USERS\MASON\PROJECTS\OGL\SIMPLE-FPS\PLAYGROUND.DIR\RELEASE\IMGUI_DEMO.OBJ
C:\USERS\MASON\PROJECTS\OGL\SIMPLE-FPS\PLAYGROUND.DIR\RELEASE\SHADER_MANAGER.OBJ
C:\USERS\MASON\PROJECTS\OGL\SIMPLE-FPS\PLAYGROUND.DIR\RELEASE\SPLIT_STREAM.OBJ
C:\USERS\MASON\PROJECTS\OGL\SIMPLE-FPS\PLAYGROUND.DIR\RELEASE\STREAM_OVERRIDE.OBJ
C:\USERS\MASON\PROJECTS\OGL\SIMPLE-FPS\PLAYGROUND.DIR\RELEASE\TEXTURE_MANAGER.OBJ
C:\USERS\MASON\PROJECTS\OGL\SIMPLE-FPS\PLAYGROUND.DIR\RELEASE\IMGUI_DRAW.OBJ
C:\USERS\MASON\PROJECTS\OGL\SIMPLE-FPS\PLAYGROUND.DIR\RELEASE\MESH_MANAGER.OBJ
C:\USERS\MASON\PROJECTS\OGL\SIMPLE-FPS\PLAYGROUND.DIR\RELEASE\PHYS_OBJ.OBJ
C:\USERS\MASON\PROJECTS\OGL\SIMPLE-FPS\PLAYGROUND.DIR\RELEASE\SKSMATH.OBJ
C:\USERS\MASON\PROJECTS\OGL\SIMPLE-FPS\PLAYGROUND.DIR\RELEASE\GAME.OBJ
C:\USERS\MASON\PROJECTS\OGL\SIMPLE-FPS\PLAYGROUND.DIR\RELEASE\IMGUI.OBJ
C:\USERS\MASON\PROJECTS\OGL\SIMPLE-FPS\PLAYGROUND.DIR\RELEASE\OBJ_IMPORTER.OBJ
C:\USERS\MASON\PROJECTS\OGL\SIMPLE-FPS\PLAYGROUND.DIR\RELEASE\PHYS_WORLD.OBJ
C:\USERS\MASON\PROJECTS\OGL\SIMPLE-FPS\PLAYGROUND.DIR\RELEASE\TRANSFORM.OBJ
C:\USERS\MASON\PROJECTS\OGL\SIMPLE-FPS\PLAYGROUND.DIR\RELEASE\USER_INPUT.OBJ
C:\USERS\MASON\PROJECTS\OGL\SIMPLE-FPS\PLAYGROUND.DIR\RELEASE\MATERIAL_MANAGER.OBJ
C:\USERS\MASON\PROJECTS\OGL\SIMPLE-FPS\PLAYGROUND.DIR\RELEASE\PRIMITIVES.OBJ
C:\USERS\MASON\PROJECTS\OGL\SIMPLE-FPS\PLAYGROUND.DIR\RELEASE\MTL_IMPORTER.OBJ
C:\USERS\MASON\PROJECTS\OGL\SIMPLE-FPS\PLAYGROUND.DIR\RELEASE\RENDERER.OBJ
C:\USERS\MASON\PROJECTS\OGL\SIMPLE-FPS\PLAYGROUND.DIR\RELEASE\WEAPON.OBJ
^C:\USERS\MASON\PROJECTS\OGL\SIMPLE-FPS\GAME.CPP|C:\USERS\MASON\PROJECTS\OGL\SIMPLE-FPS\LOGGER.CPP|C:\USERS\MASON\PROJECTS\OGL\SIMPLE-FPS\MATERIAL_MANAGER.CPP|C:\USERS\MASON\PROJECTS\OGL\SIMPLE-FPS\MESH_MANAGER.CPP|C:\USERS\MASON\PROJECTS\OGL\SIMPLE-FPS\MTL_IMPORTER.CPP|C:\USERS\MASON\PROJECTS\OGL\SIMPLE-FPS\OBJ_IMPORTER.CPP|C:\USERS\MASON\PROJECTS\OGL\SIMPLE-FPS\PHYS_OBJ.CPP|C:\USERS\MASON\PROJECTS\OGL\SIMPLE-FPS\PHYS_WORLD.CPP|C:\USERS\MASON\PROJECTS\OGL\SIMPLE-FPS\RENDERER.CPP|C:\USERS\MASON\PROJECTS\OGL\SIMPLE-FPS\TRANSFORM.CPP|C:\USERS\MASON\PROJECTS\OGL\SIMPLE-FPS\USER_INPUT.CPP|C:\USERS\MASON\PROJECTS\OGL\SIMPLE-FPS\WEAPON.CPP
C:\USERS\MASON\PROJECTS\OGL\SIMPLE-FPS\PLAYGROUND.DIR\RELEASE\PHYS_OBJ.OBJ
C:\USERS\MASON\PROJECTS\OGL\SIMPLE-FPS\PLAYGROUND.DIR\RELEASE\RENDERER.OBJ
C:\USERS\MASON\PROJECTS\OGL\SIMPLE-FPS\PLAYGROUND.DIR\RELEASE\WEAPON.OBJ
C:\USERS\MASON\PROJECTS\OGL\SIMPLE-FPS\PLAYGROUND.DIR\RELEASE\MATERIAL_MANAGER.OBJ
C:\USERS\MASON\PROJECTS\OGL\SIMPLE-FPS\PLAYGROUND.DIR\RELEASE\OBJ_IMPORTER.OBJ
C:\USERS\MASON\PROJECTS\OGL\SIMPLE-FPS\PLAYGROUND.DIR\RELEASE\USER_INPUT.OBJ
C:\USERS\MASON\PROJECTS\OGL\SIMPLE-FPS\PLAYGROUND.DIR\RELEASE\MESH_MANAGER.OBJ
C:\USERS\MASON\PROJECTS\OGL\SIMPLE-FPS\PLAYGROUND.DIR\RELEASE\PHYS_WORLD.OBJ
C:\USERS\MASON\PROJECTS\OGL\SIMPLE-FPS\PLAYGROUND.DIR\RELEASE\TRANSFORM.OBJ
C:\USERS\MASON\PROJECTS\OGL\SIMPLE-FPS\PLAYGROUND.DIR\RELEASE\MTL_IMPORTER.OBJ
C:\USERS\MASON\PROJECTS\OGL\SIMPLE-FPS\PLAYGROUND.DIR\RELEASE\GAME.OBJ
^C:\USERS\MASON\PROJECTS\OGL\SIMPLE-FPS\LOGGER.CPP|C:\USERS\MASON\PROJECTS\OGL\SIMPLE-FPS\TEXTURE_MANAGER.CPP
C:\USERS\MASON\PROJECTS\OGL\SIMPLE-FPS\PLAYGROUND.DIR\RELEASE\LOGGER.OBJ
C:\USERS\MASON\PROJECTS\OGL\SIMPLE-FPS\PLAYGROUND.DIR\RELEASE\TEXTURE_MANAGER.OBJ
^C:\USERS\MASON\PROJECTS\OGL\SIMPLE-FPS\MESH_MANAGER.CPP|C:\USERS\MASON\PROJECTS\OGL\SIMPLE-FPS\TEXTURE_MANAGER.CPP
C:\USERS\MASON\PROJECTS\OGL\SIMPLE-FPS\PLAYGROUND.DIR\RELEASE\MESH_MANAGER.OBJ
^C:\USERS\MASON\PROJECTS\OGL\SIMPLE-FPS\GAME.CPP|C:\USERS\MASON\PROJECTS\OGL\SIMPLE-FPS\MESH_MANAGER.CPP|C:\USERS\MASON\PROJECTS\OGL\SIMPLE-FPS\USER_INPUT.CPP
C:\USERS\MASON\PROJECTS\OGL\SIMPLE-FPS\PLAYGROUND.DIR\RELEASE\MESH_MANAGER.OBJ
C:\USERS\MASON\PROJECTS\OGL\SIMPLE-FPS\PLAYGROUND.DIR\RELEASE\USER_INPUT.OBJ
C:\USERS\MASON\PROJECTS\OGL\SIMPLE-FPS\PLAYGROUND.DIR\RELEASE\GAME.OBJ
^C:\USERS\MASON\PROJECTS\OGL\SIMPLE-FPS\MESH_MANAGER.CPP|C:\USERS\MASON\PROJECTS\OGL\SIMPLE-FPS\SHADER_MANAGER.CPP|C:\USERS\MASON\PROJECTS\OGL\SIMPLE-FPS\USER_INPUT.CPP
C:\USERS\MASON\PROJECTS\OGL\SIMPLE-FPS\PLAYGROUND.DIR\RELEASE\SHADER_MANAGER.OBJ
C:\USERS\MASON\PROJECTS\OGL\SIMPLE-FPS\PLAYGROUND.DIR\RELEASE\MESH_MANAGER.OBJ
C:\USERS\MASON\PROJECTS\OGL\SIMPLE-FPS\PLAYGROUND.DIR\RELEASE\USER_INPUT.OBJ
^C:\USERS\MASON\PROJECTS\OGL\SIMPLE-FPS\SHADER_MANAGER.CPP|C:\USERS\MASON\PROJECTS\OGL\SIMPLE-FPS\USER_INPUT.CPP
C:\USERS\MASON\PROJECTS\OGL\SIMPLE-FPS\PLAYGROUND.DIR\RELEASE\SHADER_MANAGER.OBJ
C:\USERS\MASON\PROJECTS\OGL\SIMPLE-FPS\PLAYGROUND.DIR\RELEASE\USER_INPUT.OBJ
^C:\USERS\MASON\PROJECTS\OGL\SIMPLE-FPS\GAME.CPP|C:\USERS\MASON\PROJECTS\OGL\SIMPLE-FPS\LOGGER.CPP|C:\USERS\MASON\PROJECTS\OGL\SIMPLE-FPS\MATERIAL_MANAGER.CPP|C:\USERS\MASON\PROJECTS\OGL\SIMPLE-FPS\MESH_MANAGER.CPP|C:\USERS\MASON\PROJECTS\OGL\SIMPLE-FPS\MTL_IMPORTER.CPP|C:\USERS\MASON\PROJECTS\OGL\SIMPLE-FPS\OBJ_IMPORTER.CPP|C:\USERS\MASON\PROJECTS\OGL\SIMPLE-FPS\PHYS_OBJ.CPP|C:\USERS\MASON\PROJECTS\OGL\SIMPLE-FPS\PHYS_WORLD.CPP|C:\USERS\MASON\PROJECTS\OGL\SIMPLE-FPS\RENDERER.CPP|C:\USERS\MASON\PROJECTS\OGL\SIMPLE-FPS\SHADER_MANAGER.CPP|C:\USERS\MASON\PROJECTS\OGL\SIMPLE-FPS\TEXTURE_MANAGER.CPP|C:\USERS\MASON\PROJECTS\OGL\SIMPLE-FPS\TRANSFORM.CPP|C:\USERS\MASON\PROJECTS\OGL\SIMPLE-FPS\USER_INPUT.CPP|C:\USERS\MASON\PROJECTS\OGL\SIMPLE-FPS\WEAPON.CPP
C:\USERS\MASON\PROJECTS\OGL\SIMPLE-FPS\PLAYGROUND.DIR\RELEASE\MATERIAL_MANAGER.OBJ
C:\USERS\MASON\PROJECTS\OGL\SIMPLE-FPS\PLAYGROUND.DIR\RELEASE\MTL_IMPORTER.OBJ
C:\USERS\MASON\PROJECTS\OGL\SIMPLE-FPS\PLAYGROUND.DIR\RELEASE\TRANSFORM.OBJ
C:\USERS\MASON\PROJECTS\OGL\SIMPLE-FPS\PLAYGROUND.DIR\RELEASE\USER_INPUT.OBJ
C:\USERS\MASON\PROJECTS\OGL\SIMPLE-FPS\PLAYGROUND.DIR\RELEASE\PHYS_WORLD.OBJ
C:\USERS\MASON\PROJECTS\OGL\SIMPLE-FPS\PLAYGROUND.DIR\RELEASE\MESH_MANAGER.OBJ
C:\USERS\MASON\PROJECTS\OGL\SIMPLE-FPS\PLAYGROUND.DIR\RELEASE\RENDERER.OBJ
C:\USERS\MASON\PROJECTS\OGL\SIMPLE-FPS\PLAYGROUND.DIR\RELEASE\TEXTURE_MANAGER.OBJ
C:\USERS\MASON\PROJECTS\OGL\SIMPLE-FPS\PLAYGROUND.DIR\RELEASE\GAME.OBJ
C:\USERS\MASON\PROJECTS\OGL\SIMPLE-FPS\PLAYGROUND.DIR\RELEASE\PHYS_OBJ.OBJ
C:\USERS\MASON\PROJECTS\OGL\SIMPLE-FPS\PLAYGROUND.DIR\RELEASE\SHADER_MANAGER.OBJ
C:\USERS\MASON\PROJECTS\OGL\SIMPLE-FPS\PLAYGROUND.DIR\RELEASE\LOGGER.OBJ
C:\USERS\MASON\PROJECTS\OGL\SIMPLE-FPS\PLAYGROUND.DIR\RELEASE\OBJ_IMPORTER.OBJ
C:\USERS\MASON\PROJECTS\OGL\SIMPLE-FPS\PLAYGROUND.DIR\RELEASE\WEAPON.OBJ
^C:\USERS\MASON\PROJECTS\OGL\SIMPLE-FPS\LOGGER.CPP|C:\USERS\MASON\PROJECTS\OGL\SIMPLE-FPS\OBJ_IMPORTER.CPP|C:\USERS\MASON\PROJECTS\OGL\SIMPLE-FPS\USER_INPUT.CPP
C:\USERS\MASON\PROJECTS\OGL\SIMPLE-FPS\PLAYGROUND.DIR\RELEASE\LOGGER.OBJ
C:\USERS\MASON\PROJECTS\OGL\SIMPLE-FPS\PLAYGROUND.DIR\RELEASE\OBJ_IMPORTER.OBJ
C:\USERS\MASON\PROJECTS\OGL\SIMPLE-FPS\PLAYGROUND.DIR\RELEASE\USER_INPUT.OBJ
^C:\USERS\MASON\PROJECTS\OGL\SIMPLE-FPS\MTL_IMPORTER.CPP|C:\USERS\MASON\PROJECTS\OGL\SIMPLE-FPS\OBJ_IMPORTER.CPP
C:\USERS\MASON\PROJECTS\OGL\SIMPLE-FPS\PLAYGROUND.DIR\RELEASE\OBJ_IMPORTER.OBJ
C:\USERS\MASON\PROJECTS\OGL\SIMPLE-FPS\PLAYGROUND.DIR\RELEASE\MTL_IMPORTER.OBJ
^C:\USERS\MASON\PROJECTS\OGL\SIMPLE-FPS\GAME.CPP|C:\USERS\MASON\PROJECTS\OGL\SIMPLE-FPS\LOGGER.CPP|C:\USERS\MASON\PROJECTS\OGL\SIMPLE-FPS\MATERIAL_MANAGER.CPP|C:\USERS\MASON\PROJECTS\OGL\SIMPLE-FPS\MESH_MANAGER.CPP|C:\USERS\MASON\PROJECTS\OGL\SIMPLE-FPS\MTL_IMPORTER.CPP|C:\USERS\MASON\PROJECTS\OGL\SIMPLE-FPS\OBJ_IMPORTER.CPP|C:\USERS\MASON\PROJECTS\OGL\SIMPLE-FPS\PHYS_OBJ.CPP|C:\USERS\MASON\PROJECTS\OGL\SIMPLE-FPS\RENDERER.CPP|C:\USERS\MASON\PROJECTS\OGL\SIMPLE-FPS\SHADER_MANAGER.CPP|C:\USERS\MASON\PROJECTS\OGL\SIMPLE-FPS\TEXTURE_MANAGER.CPP|C:\USERS\MASON\PROJECTS\OGL\SIMPLE-FPS\USER_INPUT.CPP|C:\USERS\MASON\PROJECTS\OGL\SIMPLE-FPS\WEAPON.CPP
C:\USERS\MASON\PROJECTS\OGL\SIMPLE-FPS\PLAYGROUND.DIR\RELEASE\LOGGER.OBJ
C:\USERS\MASON\PROJECTS\OGL\SIMPLE-FPS\PLAYGROUND.DIR\RELEASE\OBJ_IMPORTER.OBJ
C:\USERS\MASON\PROJECTS\OGL\SIMPLE-FPS\PLAYGROUND.DIR\RELEASE\MATERIAL_MANAGER.OBJ
C:\USERS\MASON\PROJECTS\OGL\SIMPLE-FPS\PLAYGROUND.DIR\RELEASE\MTL_IMPORTER.OBJ
C:\USERS\MASON\PROJECTS\OGL\SIMPLE-FPS\PLAYGROUND.DIR\RELEASE\USER_INPUT.OBJ
C:\USERS\MASON\PROJECTS\OGL\SIMPLE-FPS\PLAYGROUND.DIR\RELEASE\GAME.OBJ
C:\USERS\MASON\PROJECTS\OGL\SIMPLE-FPS\PLAYGROUND.DIR\RELEASE\PHYS_OBJ.OBJ
C:\USERS\MASON\PROJECTS\OGL\SIMPLE-FPS\PLAYGROUND.DIR\RELEASE\SHADER_MANAGER.OBJ
C:\USERS\MASON\PROJECTS\OGL\SIMPLE-FPS\PLAYGROUND.DIR\RELEASE\WEAPON.OBJ
C:\USERS\MASON\PROJECTS\OGL\SIMPLE-FPS\PLAYGROUND.DIR\RELEASE\MESH_MANAGER.OBJ
C:\USERS\MASON\PROJECTS\OGL\SIMPLE-FPS\PLAYGROUND.DIR\RELEASE\RENDERER.OBJ
C:\USERS\MASON\PROJECTS\OGL\SIMPLE-FPS\PLAYGROUND.DIR\RELEASE\TEXTURE_MANAGER.OBJ
^C:\USERS\MASON\PROJECTS\OGL\SIMPLE-FPS\LOGGER.CPP|C:\USERS\MASON\PROJECTS\OGL\SIMPLE-FPS\USER_INPUT.CPP|C:\USERS\MASON\PROJECTS\OGL\SIMPLE-FPS\WEAPON.CPP
C:\USERS\MASON\PROJECTS\OGL\SIMPLE-FPS\PLAYGROUND.DIR\RELEASE\WEAPON.OBJ
C:\USERS\MASON\PROJECTS\OGL\SIMPLE-FPS\PLAYGROUND.DIR\RELEASE\LOGGER.OBJ
C:\USERS\MASON\PROJECTS\OGL\SIMPLE-FPS\PLAYGROUND.DIR\RELEASE\USER_INPUT.OBJ
^C:\USERS\MASON\PROJECTS\OGL\SIMPLE-FPS\GAME.CPP|C:\USERS\MASON\PROJECTS\OGL\SIMPLE-FPS\LOGGER.CPP|C:\USERS\MASON\PROJECTS\OGL\SIMPLE-FPS\USER_INPUT.CPP|C:\USERS\MASON\PROJECTS\OGL\SIMPLE-FPS\WEAPON.CPP
C:\USERS\MASON\PROJECTS\OGL\SIMPLE-FPS\PLAYGROUND.DIR\RELEASE\USER_INPUT.OBJ
C:\USERS\MASON\PROJECTS\OGL\SIMPLE-FPS\PLAYGROUND.DIR\RELEASE\LOGGER.OBJ
C:\USERS\MASON\PROJECTS\OGL\SIMPLE-FPS\PLAYGROUND.DIR\RELEASE\WEAPON.OBJ
C:\USERS\MASON\PROJECTS\OGL\SIMPLE-FPS\PLAYGROUND.DIR\RELEASE\GAME.OBJ
^C:\USERS\MASON\PROJECTS\OGL\SIMPLE-FPS\LOGGER.CPP|C:\USERS\MASON\PROJECTS\OGL\SIMPLE-FPS\USER_INPUT.CPP
C:\USERS\MASON\PROJECTS\OGL\SIMPLE-FPS\PLAYGROUND.DIR\RELEASE\LOGGER.OBJ
C:\USERS\MASON\PROJECTS\OGL\SIMPLE-FPS\PLAYGROUND.DIR\RELEASE\USER_INPUT.OBJ
^C:\USERS\MASON\PROJECTS\OGL\SIMPLE-FPS\STDAFX.CPP
C:\USERS\MASON\PROJECTS\OGL\SIMPLE-FPS\PLAYGROUND.DIR\RELEASE\SIMPLE_FPS.PCH
C:\USERS\MASON\PROJECTS\OGL\SIMPLE-FPS\PLAYGROUND.DIR\RELEASE\STDAFX.OBJ
^C:\USERS\MASON\PROJECTS\OGL\SIMPLE-FPS\GAME.CPP|C:\USERS\MASON\PROJECTS\OGL\SIMPLE-FPS\LOGGER.CPP|C:\USERS\MASON\PROJECTS\OGL\SIMPLE-FPS\MATERIAL_MANAGER.CPP|C:\USERS\MASON\PROJECTS\OGL\SIMPLE-FPS\MESH_MANAGER.CPP|C:\USERS\MASON\PROJECTS\OGL\SIMPLE-FPS\MTL_IMPORTER.CPP|C:\USERS\MASON\PROJECTS\OGL\SIMPLE-FPS\OBJ_IMPORTER.CPP|C:\USERS\MASON\PROJECTS\OGL\SIMPLE-FPS\PHYS_OBJ.CPP|C:\USERS\MASON\PROJECTS\OGL\SIMPLE-FPS\PHYS_WORLD.CPP|C:\USERS\MASON\PROJECTS\OGL\SIMPLE-FPS\PRIMITIVES.CPP|C:\USERS\MASON\PROJECTS\OGL\SIMPLE-FPS\RENDERER.CPP|C:\USERS\MASON\PROJECTS\OGL\SIMPLE-FPS\SHADER_MANAGER.CPP|C:\USERS\MASON\PROJECTS\OGL\SIMPLE-FPS\SKSMATH.CPP|C:\USERS\MASON\PROJECTS\OGL\SIMPLE-FPS\SPLIT_STREAM.CPP|C:\USERS\MASON\PROJECTS\OGL\SIMPLE-FPS\STREAM_OVERRIDE.CPP|C:\USERS\MASON\PROJECTS\OGL\SIMPLE-FPS\TEXTURE_MANAGER.CPP|C:\USERS\MASON\PROJECTS\OGL\SIMPLE-FPS\TRANSFORM.CPP|C:\USERS\MASON\PROJECTS\OGL\SIMPLE-FPS\USER_INPUT.CPP|C:\USERS\MASON\PROJECTS\OGL\SIMPLE-FPS\WEAPON.CPP
C:\USERS\MASON\PROJECTS\OGL\SIMPLE-FPS\PLAYGROUND.DIR\RELEASE\GAME.OBJ
C:\USERS\MASON\PROJECTS\OGL\SIMPLE-FPS\PLAYGROUND.DIR\RELEASE\PHYS_OBJ.OBJ
C:\USERS\MASON\PROJECTS\OGL\SIMPLE-FPS\PLAYGROUND.DIR\RELEASE\PRIMITIVES.OBJ
C:\USERS\MASON\PROJECTS\OGL\SIMPLE-FPS\PLAYGROUND.DIR\RELEASE\RENDERER.OBJ
C:\USERS\MASON\PROJECTS\OGL\SIMPLE-FPS\PLAYGROUND.DIR\RELEASE\SPLIT_STREAM.OBJ
C:\USERS\MASON\PROJECTS\OGL\SIMPLE-FPS\PLAYGROUND.DIR\RELEASE\STREAM_OVERRIDE.OBJ
C:\USERS\MASON\PROJECTS\OGL\SIMPLE-FPS\PLAYGROUND.DIR\RELEASE\TRANSFORM.OBJ
C:\USERS\MASON\PROJECTS\OGL\SIMPLE-FPS\PLAYGROUND.DIR\RELEASE\WEAPON.OBJ
C:\USERS\MASON\PROJECTS\OGL\SIMPLE-FPS\PLAYGROUND.DIR\RELEASE\LOGGER.OBJ
C:\USERS\MASON\PROJECTS\OGL\SIMPLE-FPS\PLAYGROUND.DIR\RELEASE\OBJ_IMPORTER.OBJ
C:\USERS\MASON\PROJECTS\OGL\SIMPLE-FPS\PLAYGROUND.DIR\RELEASE\PHYS_WORLD.OBJ
C:\USERS\MASON\PROJECTS\OGL\SIMPLE-FPS\PLAYGROUND.DIR\RELEASE\MESH_MANAGER.OBJ
C:\USERS\MASON\PROJECTS\OGL\SIMPLE-FPS\PLAYGROUND.DIR\RELEASE\SHADER_MANAGER.OBJ
C:\USERS\MASON\PROJECTS\OGL\SIMPLE-FPS\PLAYGROUND.DIR\RELEASE\USER_INPUT.OBJ
C:\USERS\MASON\PROJECTS\OGL\SIMPLE-FPS\PLAYGROUND.DIR\RELEASE\SKSMATH.OBJ
C:\USERS\MASON\PROJECTS\OGL\SIMPLE-FPS\PLAYGROUND.DIR\RELEASE\MATERIAL_MANAGER.OBJ
C:\USERS\MASON\PROJECTS\OGL\SIMPLE-FPS\PLAYGROUND.DIR\RELEASE\MTL_IMPORTER.OBJ
C:\USERS\MASON\PROJECTS\OGL\SIMPLE-FPS\PLAYGROUND.DIR\RELEASE\TEXTURE_MANAGER.OBJ
^C:\USERS\MASON\PROJECTS\OGL\SIMPLE-FPS\GAME.CPP
C:\USERS\MASON\PROJECTS\OGL\SIMPLE-FPS\PLAYGROUND.DIR\RELEASE\GAME.OBJ
