^C:\USERS\MASON\PROJECTS\OGL\BULLET3\BUILD\LIB\RELEASE\BULLETCOLLISION.LIB|C:\USERS\MASON\PROJECTS\OGL\BULLET3\BUILD\LIB\RELEASE\BULLETDYNAMICS.LIB|C:\USERS\MASON\PROJECTS\OGL\BULLET3\BUILD\LIB\RELEASE\LINEARMATH.LIB|C:\USERS\MASON\PROJECTS\OGL\EXTERNAL\FMT-MASTER\BUILD\RELEASE\FMT.LIB|C:\USERS\MASON\PROJECTS\OGL\EXTERNAL\GLFW-MASTER\BUILD\SRC\RELEASE\GLFW3.LIB|C:\USERS\MASON\PROJECTS\OGL\SIMPLE-FPS\PLAYGROUND.DIR\RELEASE\GAME.OBJ|C:\USERS\MASON\PROJECTS\OGL\SIMPLE-FPS\PLAYGROUND.DIR\RELEASE\LOGGER.OBJ|C:\USERS\MASON\PROJECTS\OGL\SIMPLE-FPS\PLAYGROUND.DIR\RELEASE\MATERIAL_MANAGER.OBJ|C:\USERS\MASON\PROJECTS\OGL\SIMPLE-FPS\PLAYGROUND.DIR\RELEASE\MESH_MANAGER.OBJ|C:\USERS\MASON\PROJECTS\OGL\SIMPLE-FPS\PLAYGROUND.DIR\RELEASE\MTL_IMPORTER.OBJ|C:\USERS\MASON\PROJECTS\OGL\SIMPLE-FPS\PLAYGROUND.DIR\RELEASE\OBJ_IMPORTER.OBJ|C:\USERS\MASON\PROJECTS\OGL\SIMPLE-FPS\PLAYGROUND.DIR\RELEASE\PHYS_OBJ.OBJ|C:\USERS\MASON\PROJECTS\OGL\SIMPLE-FPS\PLAYGROUND.DIR\RELEASE\PHYS_WORLD.OBJ|C:\USERS\MASON\PROJECTS\OGL\SIMPLE-FPS\PLAYGROUND.DIR\RELEASE\PRIMITIVES.OBJ|C:\USERS\MASON\PROJECTS\OGL\SIMPLE-FPS\PLAYGROUND.DIR\RELEASE\RENDERER.OBJ|C:\USERS\MASON\PROJECTS\OGL\SIMPLE-FPS\PLAYGROUND.DIR\RELEASE\SHADER_MANAGER.OBJ|C:\USERS\MASON\PROJECTS\OGL\SIMPLE-FPS\PLAYGROUND.DIR\RELEASE\SKSMATH.OBJ|C:\USERS\MASON\PROJECTS\OGL\SIMPLE-FPS\PLAYGROUND.DIR\RELEASE\SPLIT_STREAM.OBJ|C:\USERS\MASON\PROJECTS\OGL\SIMPLE-FPS\PLAYGROUND.DIR\RELEASE\STDAFX.OBJ|C:\USERS\MASON\PROJECTS\OGL\SIMPLE-FPS\PLAYGROUND.DIR\RELEASE\STREAM_OVERRIDE.OBJ|C:\USERS\MASON\PROJECTS\OGL\SIMPLE-FPS\PLAYGROUND.DIR\RELEASE\TEXTURE_MANAGER.OBJ|C:\USERS\MASON\PROJECTS\OGL\SIMPLE-FPS\PLAYGROUND.DIR\RELEASE\TRANSFORM.OBJ|C:\USERS\MASON\PROJECTS\OGL\SIMPLE-FPS\PLAYGROUND.DIR\RELEASE\USER_INPUT.OBJ|C:\USERS\MASON\PROJECTS\OGL\SIMPLE-FPS\PLAYGROUND.DIR\RELEASE\WEAPON.OBJ|C:\USERS\MASON\PROJECTS\OGL\SIMPLE-FPS\RELEASE\IMGUI.LIB
C:\WINDOWS\GLOBALIZATION\SORTING\SORTDEFAULT.NLS
C:\PROGRAM FILES (X86)\WINDOWS KITS\10\LIB\10.0.16299.0\UM\X86\OPENGL32.LIB
C:\PROGRAM FILES (X86)\WINDOWS KITS\10\LIB\10.0.16299.0\UM\X86\GLU32.LIB
C:\USERS\MASON\PROJECTS\OGL\EXTERNAL\GLFW-MASTER\BUILD\SRC\RELEASE\GLFW3.LIB
C:\USERS\MASON\PROJECTS\OGL\EXTERNAL\GLEW-2.1.0\LIB\DEBUG\WIN32\GLEW32SD.LIB
C:\PROGRAM FILES (X86)\WINDOWS KITS\10\LIB\10.0.16299.0\UM\X86\KERNEL32.LIB
C:\PROGRAM FILES (X86)\WINDOWS KITS\10\LIB\10.0.16299.0\UM\X86\USER32.LIB
C:\PROGRAM FILES (X86)\WINDOWS KITS\10\LIB\10.0.16299.0\UM\X86\GDI32.LIB
C:\PROGRAM FILES (X86)\WINDOWS KITS\10\LIB\10.0.16299.0\UM\X86\WINSPOOL.LIB
C:\PROGRAM FILES (X86)\WINDOWS KITS\10\LIB\10.0.16299.0\UM\X86\SHELL32.LIB
C:\PROGRAM FILES (X86)\WINDOWS KITS\10\LIB\10.0.16299.0\UM\X86\OLE32.LIB
C:\PROGRAM FILES (X86)\WINDOWS KITS\10\LIB\10.0.16299.0\UM\X86\OLEAUT32.LIB
C:\PROGRAM FILES (X86)\WINDOWS KITS\10\LIB\10.0.16299.0\UM\X86\UUID.LIB
C:\PROGRAM FILES (X86)\WINDOWS KITS\10\LIB\10.0.16299.0\UM\X86\COMDLG32.LIB
C:\PROGRAM FILES (X86)\WINDOWS KITS\10\LIB\10.0.16299.0\UM\X86\ADVAPI32.LIB
C:\USERS\MASON\PROJECTS\VCPKG\INSTALLED\X86-WINDOWS\LIB\BOOST_ATOMIC-VC140-MT.LIB
C:\USERS\MASON\PROJECTS\VCPKG\INSTALLED\X86-WINDOWS\LIB\BOOST_CHRONO-VC140-MT.LIB
C:\USERS\MASON\PROJECTS\VCPKG\INSTALLED\X86-WINDOWS\LIB\BOOST_CONTAINER-VC140-MT.LIB
C:\USERS\MASON\PROJECTS\VCPKG\INSTALLED\X86-WINDOWS\LIB\BOOST_CONTEXT-VC140-MT.LIB
C:\USERS\MASON\PROJECTS\VCPKG\INSTALLED\X86-WINDOWS\LIB\BOOST_COROUTINE-VC140-MT.LIB
C:\USERS\MASON\PROJECTS\VCPKG\INSTALLED\X86-WINDOWS\LIB\BOOST_DATE_TIME-VC140-MT.LIB
C:\USERS\MASON\PROJECTS\VCPKG\INSTALLED\X86-WINDOWS\LIB\BOOST_EXCEPTION-VC140-MT.LIB
C:\USERS\MASON\PROJECTS\VCPKG\INSTALLED\X86-WINDOWS\LIB\BOOST_FIBER-VC140-MT.LIB
C:\USERS\MASON\PROJECTS\VCPKG\INSTALLED\X86-WINDOWS\LIB\BOOST_FILESYSTEM-VC140-MT.LIB
C:\USERS\MASON\PROJECTS\VCPKG\INSTALLED\X86-WINDOWS\LIB\BOOST_GRAPH-VC140-MT.LIB
C:\USERS\MASON\PROJECTS\VCPKG\INSTALLED\X86-WINDOWS\LIB\BOOST_IOSTREAMS-VC140-MT.LIB
C:\USERS\MASON\PROJECTS\VCPKG\INSTALLED\X86-WINDOWS\LIB\BOOST_LOCALE-VC140-MT.LIB
C:\USERS\MASON\PROJECTS\VCPKG\INSTALLED\X86-WINDOWS\LIB\BOOST_LOG-VC140-MT.LIB
C:\USERS\MASON\PROJECTS\VCPKG\INSTALLED\X86-WINDOWS\LIB\BOOST_LOG_SETUP-VC140-MT.LIB
C:\USERS\MASON\PROJECTS\VCPKG\INSTALLED\X86-WINDOWS\LIB\BOOST_MATH_C99-VC140-MT.LIB
C:\USERS\MASON\PROJECTS\VCPKG\INSTALLED\X86-WINDOWS\LIB\BOOST_MATH_C99F-VC140-MT.LIB
C:\USERS\MASON\PROJECTS\VCPKG\INSTALLED\X86-WINDOWS\LIB\BOOST_MATH_C99L-VC140-MT.LIB
C:\USERS\MASON\PROJECTS\VCPKG\INSTALLED\X86-WINDOWS\LIB\BOOST_MATH_TR1-VC140-MT.LIB
C:\USERS\MASON\PROJECTS\VCPKG\INSTALLED\X86-WINDOWS\LIB\BOOST_MATH_TR1F-VC140-MT.LIB
C:\USERS\MASON\PROJECTS\VCPKG\INSTALLED\X86-WINDOWS\LIB\BOOST_MATH_TR1L-VC140-MT.LIB
C:\USERS\MASON\PROJECTS\VCPKG\INSTALLED\X86-WINDOWS\LIB\BOOST_PROGRAM_OPTIONS-VC140-MT.LIB
C:\USERS\MASON\PROJECTS\VCPKG\INSTALLED\X86-WINDOWS\LIB\BOOST_PYTHON-VC140-MT.LIB
C:\USERS\MASON\PROJECTS\VCPKG\INSTALLED\X86-WINDOWS\LIB\BOOST_RANDOM-VC140-MT.LIB
C:\USERS\MASON\PROJECTS\VCPKG\INSTALLED\X86-WINDOWS\LIB\BOOST_REGEX-VC140-MT.LIB
C:\USERS\MASON\PROJECTS\VCPKG\INSTALLED\X86-WINDOWS\LIB\BOOST_SERIALIZATION-VC140-MT.LIB
C:\USERS\MASON\PROJECTS\VCPKG\INSTALLED\X86-WINDOWS\LIB\BOOST_SIGNALS-VC140-MT.LIB
C:\USERS\MASON\PROJECTS\VCPKG\INSTALLED\X86-WINDOWS\LIB\BOOST_STACKTRACE_NOOP-VC140-MT.LIB
C:\USERS\MASON\PROJECTS\VCPKG\INSTALLED\X86-WINDOWS\LIB\BOOST_STACKTRACE_WINDBG-VC140-MT.LIB
C:\USERS\MASON\PROJECTS\VCPKG\INSTALLED\X86-WINDOWS\LIB\BOOST_STACKTRACE_WINDBG_CACHED-VC140-MT.LIB
C:\USERS\MASON\PROJECTS\VCPKG\INSTALLED\X86-WINDOWS\LIB\BOOST_SYSTEM-VC140-MT.LIB
C:\USERS\MASON\PROJECTS\VCPKG\INSTALLED\X86-WINDOWS\LIB\BOOST_THREAD-VC140-MT.LIB
C:\USERS\MASON\PROJECTS\VCPKG\INSTALLED\X86-WINDOWS\LIB\BOOST_TIMER-VC140-MT.LIB
C:\USERS\MASON\PROJECTS\VCPKG\INSTALLED\X86-WINDOWS\LIB\BOOST_TYPE_ERASURE-VC140-MT.LIB
C:\USERS\MASON\PROJECTS\VCPKG\INSTALLED\X86-WINDOWS\LIB\BOOST_UNIT_TEST_FRAMEWORK-VC140-MT.LIB
C:\USERS\MASON\PROJECTS\VCPKG\INSTALLED\X86-WINDOWS\LIB\BOOST_WAVE-VC140-MT.LIB
C:\USERS\MASON\PROJECTS\VCPKG\INSTALLED\X86-WINDOWS\LIB\BOOST_WSERIALIZATION-VC140-MT.LIB
C:\USERS\MASON\PROJECTS\VCPKG\INSTALLED\X86-WINDOWS\LIB\BZ2.LIB
C:\USERS\MASON\PROJECTS\VCPKG\INSTALLED\X86-WINDOWS\LIB\LIBEAY32.LIB
C:\USERS\MASON\PROJECTS\VCPKG\INSTALLED\X86-WINDOWS\LIB\PYTHON36.LIB
C:\USERS\MASON\PROJECTS\VCPKG\INSTALLED\X86-WINDOWS\LIB\SSLEAY32.LIB
C:\USERS\MASON\PROJECTS\VCPKG\INSTALLED\X86-WINDOWS\LIB\ZLIB.LIB
C:\USERS\MASON\PROJECTS\OGL\SIMPLE-FPS\PLAYGROUND.DIR\RELEASE\LOGGER.OBJ
C:\USERS\MASON\PROJECTS\OGL\SIMPLE-FPS\PLAYGROUND.DIR\RELEASE\MATERIAL_MANAGER.OBJ
C:\USERS\MASON\PROJECTS\OGL\SIMPLE-FPS\PLAYGROUND.DIR\RELEASE\MESH_MANAGER.OBJ
C:\USERS\MASON\PROJECTS\OGL\SIMPLE-FPS\PLAYGROUND.DIR\RELEASE\PRIMITIVES.OBJ
C:\USERS\MASON\PROJECTS\OGL\SIMPLE-FPS\PLAYGROUND.DIR\RELEASE\MTL_IMPORTER.OBJ
C:\USERS\MASON\PROJECTS\OGL\SIMPLE-FPS\PLAYGROUND.DIR\RELEASE\OBJ_IMPORTER.OBJ
C:\USERS\MASON\PROJECTS\OGL\SIMPLE-FPS\PLAYGROUND.DIR\RELEASE\PHYS_OBJ.OBJ
C:\USERS\MASON\PROJECTS\OGL\SIMPLE-FPS\PLAYGROUND.DIR\RELEASE\PHYS_WORLD.OBJ
C:\USERS\MASON\PROJECTS\OGL\SIMPLE-FPS\PLAYGROUND.DIR\RELEASE\RENDERER.OBJ
C:\USERS\MASON\PROJECTS\OGL\SIMPLE-FPS\PLAYGROUND.DIR\RELEASE\SHADER_MANAGER.OBJ
C:\USERS\MASON\PROJECTS\OGL\SIMPLE-FPS\PLAYGROUND.DIR\RELEASE\SKSMATH.OBJ
C:\USERS\MASON\PROJECTS\OGL\SIMPLE-FPS\PLAYGROUND.DIR\RELEASE\STDAFX.OBJ
C:\USERS\MASON\PROJECTS\OGL\SIMPLE-FPS\PLAYGROUND.DIR\RELEASE\TRANSFORM.OBJ
C:\USERS\MASON\PROJECTS\OGL\SIMPLE-FPS\PLAYGROUND.DIR\RELEASE\GAME.OBJ
C:\USERS\MASON\PROJECTS\OGL\SIMPLE-FPS\PLAYGROUND.DIR\RELEASE\SPLIT_STREAM.OBJ
C:\USERS\MASON\PROJECTS\OGL\SIMPLE-FPS\PLAYGROUND.DIR\RELEASE\STREAM_OVERRIDE.OBJ
C:\USERS\MASON\PROJECTS\OGL\SIMPLE-FPS\PLAYGROUND.DIR\RELEASE\TEXTURE_MANAGER.OBJ
C:\USERS\MASON\PROJECTS\OGL\SIMPLE-FPS\PLAYGROUND.DIR\RELEASE\USER_INPUT.OBJ
C:\USERS\MASON\PROJECTS\OGL\SIMPLE-FPS\PLAYGROUND.DIR\RELEASE\WEAPON.OBJ
C:\USERS\MASON\PROJECTS\OGL\BULLET3\BUILD\LIB\RELEASE\BULLETCOLLISION.LIB
C:\USERS\MASON\PROJECTS\OGL\BULLET3\BUILD\LIB\RELEASE\BULLETDYNAMICS.LIB
C:\USERS\MASON\PROJECTS\OGL\BULLET3\BUILD\LIB\RELEASE\LINEARMATH.LIB
C:\USERS\MASON\PROJECTS\OGL\EXTERNAL\FMT-MASTER\BUILD\RELEASE\FMT.LIB
C:\USERS\MASON\PROJECTS\OGL\SIMPLE-FPS\RELEASE\IMGUI.LIB
C:\PROGRAM FILES (X86)\MICROSOFT VISUAL STUDIO\2017\COMMUNITY\VC\TOOLS\MSVC\14.12.25827\BIN\HOSTX86\X86\1033\LINKUI.DLL
C:\PROGRAM FILES (X86)\MICROSOFT VISUAL STUDIO\2017\COMMUNITY\VC\TOOLS\MSVC\14.12.25827\BIN\HOSTX86\X86\LINK.EXE
C:\WINDOWS\SYSTEM32\TZRES.DLL
C:\PROGRAM FILES (X86)\MICROSOFT VISUAL STUDIO\2017\COMMUNITY\VC\TOOLS\MSVC\14.12.25827\BIN\HOSTX86\X86\C2.DLL
C:\PROGRAM FILES (X86)\MICROSOFT VISUAL STUDIO\2017\COMMUNITY\VC\TOOLS\MSVC\14.12.25827\LIB\X86\MSVCPRT.LIB
C:\PROGRAM FILES (X86)\WINDOWS KITS\10\LIB\10.0.16299.0\UM\X86\WS2_32.LIB
C:\PROGRAM FILES (X86)\WINDOWS KITS\10\LIB\10.0.16299.0\UM\X86\MSWSOCK.LIB
C:\PROGRAM FILES (X86)\MICROSOFT VISUAL STUDIO\2017\COMMUNITY\VC\TOOLS\MSVC\14.12.25827\LIB\X86\MSVCRT.LIB
C:\PROGRAM FILES (X86)\MICROSOFT VISUAL STUDIO\2017\COMMUNITY\VC\TOOLS\MSVC\14.12.25827\LIB\X86\OLDNAMES.LIB
C:\PROGRAM FILES (X86)\MICROSOFT VISUAL STUDIO\2017\COMMUNITY\VC\TOOLS\MSVC\14.12.25827\LIB\X86\MSVCRTD.LIB
C:\PROGRAM FILES (X86)\WINDOWS KITS\10\LIB\10.0.16299.0\UM\X86\IMM32.LIB
C:\PROGRAM FILES (X86)\MICROSOFT VISUAL STUDIO\2017\COMMUNITY\VC\TOOLS\MSVC\14.12.25827\LIB\X86\VCRUNTIME.LIB
C:\PROGRAM FILES (X86)\WINDOWS KITS\10\LIB\10.0.16299.0\UCRT\X86\UCRT.LIB
C:\PROGRAM FILES (X86)\MICROSOFT VISUAL STUDIO\2017\COMMUNITY\VC\TOOLS\MSVC\14.12.25827\BIN\HOSTX86\X86\MSPDBSRV.EXE
C:\PROGRAM FILES (X86)\WINDOWS KITS\10\BIN\10.0.16299.0\X86\RC.EXE
C:\PROGRAM FILES (X86)\MICROSOFT VISUAL STUDIO\2017\COMMUNITY\VC\TOOLS\MSVC\14.12.25827\BIN\HOSTX86\X86\CVTRES.EXE
